Elemente der statistischen Datenanalyse und Statistik mit R – x4-Pipelines in R
…
HSE
4
length
102

… … …

Long data format with pivot_longer

leaves |> 
  pivot_longer(c("length", "width", "stalk"))

# A tibble: 378 × 4
   group    no name   value
   <chr> <int> <chr>  <int>
 1 HSE       1 length    83
 2 HSE       1 width     87
 3 HSE       1 stalk     74
 4 HSE       2 length   130
 5 HSE       2 width    153
 6 HSE       2 stalk    105
 7 HSE       3 length   140
 8 HSE       3 width    148
 9 HSE       3 stalk    135
10 HSE       4 length   102
# ℹ 368 more rows
…
re-organize the tables with pivot_longer so that all measurements are in one column

calculate summary statistics for all measurements

Selection of columns and rows: select and filter

select: select columns

filter: filters rows

fruits2 |>
  select(brand, shop, type, weight, width) |>
  filter(shop %in% c("Edeka", "Lidl"))

# A tibble: 44 × 5
   brand shop  type  weight width
   <chr> <chr> <chr>  <dbl> <dbl>
 1 EB    Edeka Basic    107  61  
 2 EB    Edeka Basic    100  65  
 3 EB    Edeka Basic     89  58  
 4 EB    Edeka Basic     99  62  
 5 EB    Edeka Basic     99  64  
 6 EB    Edeka Basic     96  63  
 7 EB    Edeka Basic    100  54  
 8 EB    Edeka Basic     89  58.5
 9 EB    Edeka Basic     86  66  
10 EB    Edeka Basic     92  43  
# ℹ 34 more rows
…
